{
  "spec_dir": "src",
  "spec_files": [
    "**/__tests__/*.js"
  ],
  "helpers": [
    "../node_modules/babel-core/register.js",
    "helpers/**/*.js"
  ],
  "stopSpecOnExpectationFailure": false,
  "random": false
}
